PLD/simulation/qsim/pld_mbed_etudiant.msim.vcd
$comment
	File created using the following command:
		vcd file pld_mbed_etudiant.msim.vcd -direction
$end
$date
	Fri Apr 25 17:32:06 2025
$end
$version
	ModelSim Version 10.1d
$end
$timescale
	1ps
$end
$scope module PWM_vlg_vec_tst $end
$var reg 1 ! H_2_5_MHZ $end
$var reg 9 " REF_PWM [8:0] $end
$var reg 1 # VALID_PWM $end
$var wire 1 $ H_10KHZ $end
$var wire 1 % PWM_OUT $end
$var wire 1 & sampler $end
$scope module i1 $end
$var wire 1 ' gnd $end
$var wire 1 ( vcc $end
$var wire 1 ) unknown $end
$var wire 1 * ~GND~0~dataout $end
$var wire 1 + H_2_5_MHZ~dataout $end
$var wire 1 , H_10KHZ~reg0_dataout $end
$var wire 1 - CPT [7] $end
$var wire 1 . CPT [6] $end
$var wire 1 / CPT [5] $end
$var wire 1 0 CPT [4] $end
$var wire 1 1 CPT [3] $end
$var wire 1 2 CPT [2] $end
$var wire 1 3 CPT [1] $end
$var wire 1 4 CPT [0] $end
$upscope $end
$upscope $end
$enddefinitions $end
#0
$dumpvars
0!
bx "
x#
0$
0%
x&
0'
1(
x)
0*
0+
0,
04
03
02
01
00
0/
0.
0-
$end
#1250
1!
1+
0&
14
#2500
0!
0+
1&
#3750
1!
1+
0&
13
04
#5000
0!
0+
1&
#6250
1!
1+
0&
14
#7500
0!
0+
1&
#8750
1!
1+
0&
12
03
04
#10000
0!
0+
1&
#11250
1!
1+
0&
14
#12500
0!
0+
1&
#13750
1!
1+
0&
13
04
#15000
0!
0+
1&
#16250
1!
1+
0&
14
#17500
0!
0+
1&
#18750
1!
1+
0&
02
03
11
04
#20000
0!
0+
1&
#21250
1!
1+
0&
14
#22500
0!
0+
1&
#23750
1!
1+
0&
13
04
#25000
0!
0+
1&
#26250
1!
1+
0&
14
#27500
0!
0+
1&
#28750
1!
1+
0&
12
03
04
#30000
0!
0+
1&
#31250
1!
1+
0&
14
#32500
0!
0+
1&
#33750
1!
1+
0&
13
04
#35000
0!
0+
1&
#36250
1!
1+
0&
14
#37500
0!
0+
1&
#38750
1!
1+
0&
02
03
10
01
04
#40000
0!
0+
1&
#41250
1!
1+
0&
14
#42500
0!
0+
1&
#43750
1!
1+
0&
13
04
#45000
0!
0+
1&
#46250
1!
1+
0&
14
#47500
0!
0+
1&
#48750
1!
1+
0&
12
03
04
#50000
0!
0+
1&
#51250
1!
1+
0&
14
#52500
0!
0+
1&
#53750
1!
1+
0&
13
04
#55000
0!
0+
1&
#56250
1!
1+
0&
14
#57500
0!
0+
1&
#58750
1!
1+
0&
02
03
11
04
#60000
0!
0+
1&
#61250
1!
1+
0&
14
#62500
0!
0+
1&
#63750
1!
1+
0&
13
04
#65000
0!
0+
1&
#66250
1!
1+
0&
14
#67500
0!
0+
1&
#68750
1!
1+
0&
12
03
04
#70000
0!
0+
1&
#71250
1!
1+
0&
14
#72500
0!
0+
1&
#73750
1!
1+
0&
13
04
#75000
0!
0+
1&
#76250
1!
1+
0&
14
#77500
0!
0+
1&
#78750
1!
1+
0&
02
03
1/
00
01
04
#80000
0!
0+
1&
#81250
1!
1+
0&
14
#82500
0!
0+
1&
#83750
1!
1+
0&
13
04
#85000
0!
0+
1&
#86250
1!
1+
0&
14
#87500
0!
0+
1&
#88750
1!
1+
0&
12
03
04
#90000
0!
0+
1&
#91250
1!
1+
0&
14
#92500
0!
0+
1&
#93750
1!
1+
0&
13
04
#95000
0!
0+
1&
#96250
1!
1+
0&
14
#97500
0!
0+
1&
#98750
1!
1+
0&
02
03
11
04
#100000
0!
0+
1&
#101250
1!
1+
0&
14
#102500
0!
0+
1&
#103750
1!
1+
0&
13
04
#105000
0!
0+
1&
#106250
1!
1+
0&
14
#107500
0!
0+
1&
#108750
1!
1+
0&
12
03
04
#110000
0!
0+
1&
#111250
1!
1+
0&
14
#112500
0!
0+
1&
#113750
1!
1+
0&
13
04
#115000
0!
0+
1&
#116250
1!
1+
0&
14
#117500
0!
0+
1&
#118750
1!
1+
0&
02
03
10
01
04
#120000
0!
0+
1&
#121250
1!
1+
0&
14
#122500
0!
0+
1&
#123750
1!
1+
0&
13
04
#125000
0!
0+
1&
#126250
1!
1+
0&
14
#127500
0!
0+
1&
#128750
1!
1+
0&
12
03
04
#130000
0!
0+
1&
#131250
1!
1+
0&
14
#132500
0!
0+
1&
#133750
1!
1+
0&
13
04
#135000
0!
0+
1&
#136250
1!
1+
0&
14
#137500
0!
0+
1&
#138750
1!
1+
0&
02
03
11
04
#140000
0!
0+
1&
#141250
1!
1+
0&
14
#142500
0!
0+
1&
#143750
1!
1+
0&
13
04
#145000
0!
0+
1&
#146250
1!
1+
0&
14
#147500
0!
0+
1&
#148750
1!
1+
0&
12
03
04
#150000
0!
0+
1&
#151250
1!
1+
0&
14
#152500
0!
0+
1&
#153750
1!
1+
0&
13
04
#155000
0!
0+
1&
#156250
1!
1+
0&
14
#157500
0!
0+
1&
#158750
1!
1+
0&
1.
02
03
0/
00
01
04
#160000
0!
0+
1&
#161250
1!
1+
0&
14
#162500
0!
0+
1&
#163750
1!
1+
0&
13
04
#165000
0!
0+
1&
#166250
1!
1+
0&
14
#167500
0!
0+
1&
#168750
1!
1+
0&
12
03
04
#170000
0!
0+
1&
#171250
1!
1+
0&
14
#172500
0!
0+
1&
#173750
1!
1+
0&
13
04
#175000
0!
0+
1&
#176250
1!
1+
0&
14
#177500
0!
0+
1&
#178750
1!
1+
0&
02
03
11
04
#180000
0!
0+
1&
#181250
1!
1+
0&
14
#182500
0!
0+
1&
#183750
1!
1+
0&
13
04
#185000
0!
0+
1&
#186250
1!
1+
0&
14
#187500
0!
0+
1&
#188750
1!
1+
0&
12
03
04
#190000
0!
0+
1&
#191250
1!
1+
0&
14
#192500
0!
0+
1&
#193750
1!
1+
0&
13
04
#195000
0!
0+
1&
#196250
1!
1+
0&
14
#197500
0!
0+
1&
#198750
1!
1+
0&
02
03
10
01
04
#200000
0!
0+
1&
#201250
1!
1+
0&
14
#202500
0!
0+
1&
#203750
1!
1+
0&
13
04
#205000
0!
0+
1&
#206250
1!
1+
0&
14
#207500
0!
0+
1&
#208750
1!
1+
0&
12
03
04
#210000
0!
0+
1&
#211250
1!
1+
0&
14
#212500
0!
0+
1&
#213750
1!
1+
0&
13
04
#215000
0!
0+
1&
#216250
1!
1+
0&
14
#217500
0!
0+
1&
#218750
1!
1+
0&
02
03
11
04
#220000
0!
0+
1&
#221250
1!
1+
0&
14
#222500
0!
0+
1&
#223750
1!
1+
0&
13
04
#225000
0!
0+
1&
#226250
1!
1+
0&
14
#227500
0!
0+
1&
#228750
1!
1+
0&
12
03
04
#230000
0!
0+
1&
#231250
1!
1+
0&
14
#232500
0!
0+
1&
#233750
1!
1+
0&
13
04
#235000
0!
0+
1&
#236250
1!
1+
0&
14
#237500
0!
0+
1&
#238750
1!
1+
0&
02
03
1/
00
01
04
#240000
0!
0+
1&
#241250
1!
1+
0&
14
#242500
0!
0+
1&
#243750
1!
1+
0&
13
04
#245000
0!
0+
1&
#246250
1!
1+
0&
14
#247500
0!
0+
1&
#248750
1!
1+
0&
12
03
04
#250000
0!
0+
1&
#251250
1!
1+
0&
14
#252500
0!
0+
1&
#253750
1!
1+
0&
13
04
#255000
0!
0+
1&
#256250
1!
1+
0&
14
#257500
0!
0+
1&
#258750
1!
1+
0&
02
03
11
04
#260000
0!
0+
1&
#261250
1!
1+
0&
14
#262500
0!
0+
1&
#263750
1!
1+
0&
13
04
#265000
0!
0+
1&
#266250
1!
1+
0&
14
#267500
0!
0+
1&
#268750
1!
1+
0&
12
03
04
#270000
0!
0+
1&
#271250
1!
1+
0&
14
#272500
0!
0+
1&
#273750
1!
1+
0&
13
04
#275000
0!
0+
1&
#276250
1!
1+
0&
14
#277500
0!
0+
1&
#278750
1!
1+
0&
02
03
10
01
04
#280000
0!
0+
1&
#281250
1!
1+
0&
14
#282500
0!
0+
1&
#283750
1!
1+
0&
13
04
#285000
0!
0+
1&
#286250
1!
1+
0&
14
#287500
0!
0+
1&
#288750
1!
1+
0&
12
03
04
#290000
0!
0+
1&
#291250
1!
1+
0&
14
#292500
0!
0+
1&
#293750
1!
1+
0&
13
04
#295000
0!
0+
1&
#296250
1!
1+
0&
14
#297500
0!
0+
1&
#298750
1!
1+
0&
02
03
11
04
#300000
0!
0+
1&
#301250
1!
1+
0&
14
#302500
0!
0+
1&
#303750
1!
1+
0&
13
04
#305000
0!
0+
1&
#306250
1!
1+
0&
14
#307500
0!
0+
1&
#308750
1!
1+
0&
12
03
04
#310000
0!
0+
1&
#311250
1!
1+
0&
14
#312500
0!
0+
1&
#313750
1!
1+
0&
13
04
#315000
0!
0+
1&
#316250
1!
1+
0&
14
#317500
0!
0+
1&
#318750
1!
1+
0&
1-
0.
02
03
0/
00
01
04
#320000
0!
0+
1&
#321250
1!
1+
0&
14
#322500
0!
0+
1&
#323750
1!
1+
0&
13
04
#325000
0!
0+
1&
#326250
1!
1+
0&
14
#327500
0!
0+
1&
#328750
1!
1+
0&
12
03
04
#330000
0!
0+
1&
#331250
1!
1+
0&
14
#332500
0!
0+
1&
#333750
1!
1+
0&
13
04
#335000
0!
0+
1&
#336250
1!
1+
0&
14
#337500
0!
0+
1&
#338750
1!
1+
0&
02
03
11
04
#340000
0!
0+
1&
#341250
1!
1+
0&
14
#342500
0!
0+
1&
#343750
1!
1+
0&
13
04
#345000
0!
0+
1&
#346250
1!
1+
0&
14
#347500
0!
0+
1&
#348750
1!
1+
0&
12
03
04
#350000
0!
0+
1&
#351250
1!
1+
0&
14
#352500
0!
0+
1&
#353750
1!
1+
0&
13
04
#355000
0!
0+
1&
#356250
1!
1+
0&
14
#357500
0!
0+
1&
#358750
1!
1+
0&
02
03
10
01
04
#360000
0!
0+
1&
#361250
1!
1+
0&
14
#362500
0!
0+
1&
#363750
1!
1+
0&
13
04
#365000
0!
0+
1&
#366250
1!
1+
0&
14
#367500
0!
0+
1&
#368750
1!
1+
0&
12
03
04
#370000
0!
0+
1&
#371250
1!
1+
0&
14
#372500
0!
0+
1&
#373750
1!
1+
0&
13
04
#375000
0!
0+
1&
#376250
1!
1+
0&
14
#377500
0!
0+
1&
#378750
1!
1+
0&
02
03
11
04
#380000
0!
0+
1&
#381250
1!
1+
0&
14
#382500
0!
0+
1&
#383750
1!
1+
0&
13
04
#385000
0!
0+
1&
#386250
1!
1+
0&
14
#387500
0!
0+
1&
#388750
1!
1+
0&
12
03
04
#390000
0!
0+
1&
#391250
1!
1+
0&
14
#392500
0!
0+
1&
#393750
1!
1+
0&
13
04
#395000
0!
0+
1&
#396250
1!
1+
0&
14
#397500
0!
0+
1&
#398750
1!
1+
0&
02
03
1/
00
01
04
#400000
0!
0+
1&
#401250
1!
1+
0&
14
#402500
0!
0+
1&
#403750
1!
1+
0&
13
04
#405000
0!
0+
1&
#406250
1!
1+
0&
14
#407500
0!
0+
1&
#408750
1!
1+
0&
12
03
04
#410000
0!
0+
1&
#411250
1!
1+
0&
14
#412500
0!
0+
1&
#413750
1!
1+
0&
13
04
#415000
0!
0+
1&
#416250
1!
1+
0&
14
#417500
0!
0+
1&
#418750
1!
1+
0&
02
03
11
04
#420000
0!
0+
1&
#421250
1!
1+
0&
14
#422500
0!
0+
1&
#423750
1!
1+
0&
13
04
#425000
0!
0+
1&
#426250
1!
1+
0&
14
#427500
0!
0+
1&
#428750
1!
1+
0&
12
03
04
#430000
0!
0+
1&
#431250
1!
1+
0&
14
#432500
0!
0+
1&
#433750
1!
1+
0&
13
04
#435000
0!
0+
1&
#436250
1!
1+
0&
14
#437500
0!
0+
1&
#438750
1!
1+
0&
02
03
10
01
04
#440000
0!
0+
1&
#441250
1!
1+
0&
14
#442500
0!
0+
1&
#443750
1!
1+
0&
13
04
#445000
0!
0+
1&
#446250
1!
1+
0&
14
#447500
0!
0+
1&
#448750
1!
1+
0&
12
03
04
#450000
0!
0+
1&
#451250
1!
1+
0&
14
#452500
0!
0+
1&
#453750
1!
1+
0&
13
04
#455000
0!
0+
1&
#456250
1!
1+
0&
14
#457500
0!
0+
1&
#458750
1!
1+
0&
02
03
11
04
#460000
0!
0+
1&
#461250
1!
1+
0&
14
#462500
0!
0+
1&
#463750
1!
1+
0&
13
04
#465000
0!
0+
1&
#466250
1!
1+
0&
14
#467500
0!
0+
1&
#468750
1!
1+
0&
12
03
04
#470000
0!
0+
1&
#471250
1!
1+
0&
14
#472500
0!
0+
1&
#473750
1!
1+
0&
13
04
#475000
0!
0+
1&
#476250
1!
1+
0&
14
#477500
0!
0+
1&
#478750
1!
1+
0&
1.
02
03
0/
00
01
04
#480000
0!
0+
1&
#481250
1!
1+
0&
14
#482500
0!
0+
1&
#483750
1!
1+
0&
13
04
#485000
0!
0+
1&
#486250
1!
1+
0&
14
#487500
0!
0+
1&
#488750
1!
1+
0&
12
03
04
#490000
0!
0+
1&
#491250
1!
1+
0&
14
#492500
0!
0+
1&
#493750
1!
1+
0&
13
04
#495000
0!
0+
1&
#496250
1!
1+
0&
14
#497500
0!
0+
1&
#498750
1!
1+
0&
02
03
11
04
#500000
0!
0+
1&
#501250
1!
1+
0&
14
#502500
0!
0+
1&
#503750
1!
1+
0&
13
04
#505000
0!
0+
1&
#506250
1!
1+
0&
14
#507500
0!
0+
1&
#508750
1!
1+
0&
12
03
04
#510000
0!
0+
1&
#511250
1!
1+
0&
14
#512500
0!
0+
1&
#513750
1!
1+
0&
13
04
#515000
0!
0+
1&
#516250
1!
1+
0&
14
#517500
0!
0+
1&
#518750
1!
1+
0&
02
03
10
01
04
#520000
0!
0+
1&
#521250
1!
1+
0&
14
#522500
0!
0+
1&
#523750
1!
1+
0&
13
04
#525000
0!
0+
1&
#526250
1!
1+
0&
14
#527500
0!
0+
1&
#528750
1!
1+
0&
12
03
04
#530000
0!
0+
1&
#531250
1!
1+
0&
14
#532500
0!
0+
1&
#533750
1!
1+
0&
13
04
#535000
0!
0+
1&
#536250
1!
1+
0&
14
#537500
0!
0+
1&
#538750
1!
1+
0&
02
03
11
04
#540000
0!
0+
1&
#541250
1!
1+
0&
14
#542500
0!
0+
1&
#543750
1!
1+
0&
13
04
#545000
0!
0+
1&
#546250
1!
1+
0&
14
#547500
0!
0+
1&
#548750
1!
1+
0&
12
03
04
#550000
0!
0+
1&
#551250
1!
1+
0&
14
#552500
0!
0+
1&
#553750
1!
1+
0&
13
04
#555000
0!
0+
1&
#556250
1!
1+
0&
14
#557500
0!
0+
1&
#558750
1!
1+
0&
02
03
1/
00
01
04
#560000
0!
0+
1&
#561250
1!
1+
0&
14
#562500
0!
0+
1&
#563750
1!
1+
0&
13
04
#565000
0!
0+
1&
#566250
1!
1+
0&
14
#567500
0!
0+
1&
#568750
1!
1+
0&
12
03
04
#570000
0!
0+
1&
#571250
1!
1+
0&
14
#572500
0!
0+
1&
#573750
1!
1+
0&
13
04
#575000
0!
0+
1&
#576250
1!
1+
0&
14
#577500
0!
0+
1&
#578750
1!
1+
0&
02
03
11
04
#580000
0!
0+
1&
#581250
1!
1+
0&
14
#582500
0!
0+
1&
#583750
1!
1+
0&
13
04
#585000
0!
0+
1&
#586250
1!
1+
0&
14
#587500
0!
0+
1&
#588750
1!
1+
0&
12
03
04
#590000
0!
0+
1&
#591250
1!
1+
0&
14
#592500
0!
0+
1&
#593750
1!
1+
0&
13
04
#595000
0!
0+
1&
#596250
1!
1+
0&
14
#597500
0!
0+
1&
#598750
1!
1+
0&
02
03
10
01
04
#600000
0!
0+
1&
#601250
1!
1+
0&
14
#602500
0!
0+
1&
#603750
1!
1+
0&
13
04
#605000
0!
0+
1&
#606250
1!
1+
0&
14
#607500
0!
0+
1&
#608750
1!
1+
0&
12
03
04
#610000
0!
0+
1&
#611250
1!
1+
0&
14
#612500
0!
0+
1&
#613750
1!
1+
0&
13
04
#615000
0!
0+
1&
#616250
1!
1+
0&
14
#617500
0!
0+
1&
#618750
1!
1+
0&
02
03
11
04
#620000
0!
0+
1&
#621250
1!
1+
0&
14
#622500
0!
0+
1&
#623750
1!
1+
0&
1,
0-
0.
0/
00
01
04
1$
#625000
0!
0+
1&
#626250
1!
1+
0&
0,
14
0$
#627500
0!
0+
1&
#628750
1!
1+
0&
13
04
#630000
0!
0+
1&
#631250
1!
1+
0&
14
#632500
0!
0+
1&
#633750
1!
1+
0&
12
03
04
#635000
0!
0+
1&
#636250
1!
1+
0&
14
#637500
0!
0+
1&
#638750
1!
1+
0&
13
04
#640000
0!
0+
1&
#641250
1!
1+
0&
14
#642500
0!
0+
1&
#643750
1!
1+
0&
02
03
11
04
#645000
0!
0+
1&
#646250
1!
1+
0&
14
#647500
0!
0+
1&
#648750
1!
1+
0&
13
04
#650000
0!
0+
1&
#651250
1!
1+
0&
14
#652500
0!
0+
1&
#653750
1!
1+
0&
12
03
04
#655000
0!
0+
1&
#656250
1!
1+
0&
14
#657500
0!
0+
1&
#658750
1!
1+
0&
13
04
#660000
0!
0+
1&
#661250
1!
1+
0&
14
#662500
0!
0+
1&
#663750
1!
1+
0&
02
03
10
01
04
#665000
0!
0+
1&
#666250
1!
1+
0&
14
#667500
0!
0+
1&
#668750
1!
1+
0&
13
04
#670000
0!
0+
1&
#671250
1!
1+
0&
14
#672500
0!
0+
1&
#673750
1!
1+
0&
12
03
04
#675000
0!
0+
1&
#676250
1!
1+
0&
14
#677500
0!
0+
1&
#678750
1!
1+
0&
13
04
#680000
0!
0+
1&
#681250
1!
1+
0&
14
#682500
0!
0+
1&
#683750
1!
1+
0&
02
03
11
04
#685000
0!
0+
1&
#686250
1!
1+
0&
14
#687500
0!
0+
1&
#688750
1!
1+
0&
13
04
#690000
0!
0+
1&
#691250
1!
1+
0&
14
#692500
0!
0+
1&
#693750
1!
1+
0&
12
03
04
#695000
0!
0+
1&
#696250
1!
1+
0&
14
#697500
0!
0+
1&
#698750
1!
1+
0&
13
04
#700000
0!
0+
1&
#701250
1!
1+
0&
14
#702500
0!
0+
1&
#703750
1!
1+
0&
02
03
1/
00
01
04
#705000
0!
0+
1&
#706250
1!
1+
0&
14
#707500
0!
0+
1&
#708750
1!
1+
0&
13
04
#710000
0!
0+
1&
#711250
1!
1+
0&
14
#712500
0!
0+
1&
#713750
1!
1+
0&
12
03
04
#715000
0!
0+
1&
#716250
1!
1+
0&
14
#717500
0!
0+
1&
#718750
1!
1+
0&
13
04
#720000
0!
0+
1&
#721250
1!
1+
0&
14
#722500
0!
0+
1&
#723750
1!
1+
0&
02
03
11
04
#725000
0!
0+
1&
#726250
1!
1+
0&
14
#727500
0!
0+
1&
#728750
1!
1+
0&
13
04
#730000
0!
0+
1&
#731250
1!
1+
0&
14
#732500
0!
0+
1&
#733750
1!
1+
0&
12
03
04
#735000
0!
0+
1&
#736250
1!
1+
0&
14
#737500
0!
0+
1&
#738750
1!
1+
0&
13
04
#740000
0!
0+
1&
#741250
1!
1+
0&
14
#742500
0!
0+
1&
#743750
1!
1+
0&
02
03
10
01
04
#745000
0!
0+
1&
#746250
1!
1+
0&
14
#747500
0!
0+
1&
#748750
1!
1+
0&
13
04
#750000
0!
0+
1&
#751250
1!
1+
0&
14
#752500
0!
0+
1&
#753750
1!
1+
0&
12
03
04
#755000
0!
0+
1&
#756250
1!
1+
0&
14
#757500
0!
0+
1&
#758750
1!
1+
0&
13
04
#760000
0!
0+
1&
#761250
1!
1+
0&
14
#762500
0!
0+
1&
#763750
1!
1+
0&
02
03
11
04
#765000
0!
0+
1&
#766250
1!
1+
0&
14
#767500
0!
0+
1&
#768750
1!
1+
0&
13
04
#770000
0!
0+
1&
#771250
1!
1+
0&
14
#772500
0!
0+
1&
#773750
1!
1+
0&
12
03
04
#775000
0!
0+
1&
#776250
1!
1+
0&
14
#777500
0!
0+
1&
#778750
1!
1+
0&
13
04
#780000
0!
0+
1&
#781250
1!
1+
0&
14
#782500
0!
0+
1&
#783750
1!
1+
0&
1.
02
03
0/
00
01
04
#785000
0!
0+
1&
#786250
1!
1+
0&
14
#787500
0!
0+
1&
#788750
1!
1+
0&
13
04
#790000
0!
0+
1&
#791250
1!
1+
0&
14
#792500
0!
0+
1&
#793750
1!
1+
0&
12
03
04
#795000
0!
0+
1&
#796250
1!
1+
0&
14
#797500
0!
0+
1&
#798750
1!
1+
0&
13
04
#800000
0!
0+
1&
#801250
1!
1+
0&
14
#802500
0!
0+
1&
#803750
1!
1+
0&
02
03
11
04
#805000
0!
0+
1&
#806250
1!
1+
0&
14
#807500
0!
0+
1&
#808750
1!
1+
0&
13
04
#810000
0!
0+
1&
#811250
1!
1+
0&
14
#812500
0!
0+
1&
#813750
1!
1+
0&
12
03
04
#815000
0!
0+
1&
#816250
1!
1+
0&
14
#817500
0!
0+
1&
#818750
1!
1+
0&
13
04
#820000
0!
0+
1&
#821250
1!
1+
0&
14
#822500
0!
0+
1&
#823750
1!
1+
0&
02
03
10
01
04
#825000
0!
0+
1&
#826250
1!
1+
0&
14
#827500
0!
0+
1&
#828750
1!
1+
0&
13
04
#830000
0!
0+
1&
#831250
1!
1+
0&
14
#832500
0!
0+
1&
#833750
1!
1+
0&
12
03
04
#835000
0!
0+
1&
#836250
1!
1+
0&
14
#837500
0!
0+
1&
#838750
1!
1+
0&
13
04
#840000
0!
0+
1&
#841250
1!
1+
0&
14
#842500
0!
0+
1&
#843750
1!
1+
0&
02
03
11
04
#845000
0!
0+
1&
#846250
1!
1+
0&
14
#847500
0!
0+
1&
#848750
1!
1+
0&
13
04
#850000
0!
0+
1&
#851250
1!
1+
0&
14
#852500
0!
0+
1&
#853750
1!
1+
0&
12
03
04
#855000
0!
0+
1&
#856250
1!
1+
0&
14
#857500
0!
0+
1&
#858750
1!
1+
0&
13
04
#860000
0!
0+
1&
#861250
1!
1+
0&
14
#862500
0!
0+
1&
#863750
1!
1+
0&
02
03
1/
00
01
04
#865000
0!
0+
1&
#866250
1!
1+
0&
14
#867500
0!
0+
1&
#868750
1!
1+
0&
13
04
#870000
0!
0+
1&
#871250
1!
1+
0&
14
#872500
0!
0+
1&
#873750
1!
1+
0&
12
03
04
#875000
0!
0+
1&
#876250
1!
1+
0&
14
#877500
0!
0+
1&
#878750
1!
1+
0&
13
04
#880000
0!
0+
1&
#881250
1!
1+
0&
14
#882500
0!
0+
1&
#883750
1!
1+
0&
02
03
11
04
#885000
0!
0+
1&
#886250
1!
1+
0&
14
#887500
0!
0+
1&
#888750
1!
1+
0&
13
04
#890000
0!
0+
1&
#891250
1!
1+
0&
14
#892500
0!
0+
1&
#893750
1!
1+
0&
12
03
04
#895000
0!
0+
1&
#896250
1!
1+
0&
14
#897500
0!
0+
1&
#898750
1!
1+
0&
13
04
#900000
0!
0+
1&
#901250
1!
1+
0&
14
#902500
0!
0+
1&
#903750
1!
1+
0&
02
03
10
01
04
#905000
0!
0+
1&
#906250
1!
1+
0&
14
#907500
0!
0+
1&
#908750
1!
1+
0&
13
04
#910000
0!
0+
1&
#911250
1!
1+
0&
14
#912500
0!
0+
1&
#913750
1!
1+
0&
12
03
04
#915000
0!
0+
1&
#916250
1!
1+
0&
14
#917500
0!
0+
1&
#918750
1!
1+
0&
13
04
#920000
0!
0+
1&
#921250
1!
1+
0&
14
#922500
0!
0+
1&
#923750
1!
1+
0&
02
03
11
04
#925000
0!
0+
1&
#926250
1!
1+
0&
14
#927500
0!
0+
1&
#928750
1!
1+
0&
13
04
#930000
0!
0+
1&
#931250
1!
1+
0&
14
#932500
0!
0+
1&
#933750
1!
1+
0&
12
03
04
#935000
0!
0+
1&
#936250
1!
1+
0&
14
#937500
0!
0+
1&
#938750
1!
1+
0&
13
04
#940000
0!
0+
1&
#941250
1!
1+
0&
14
#942500
0!
0+
1&
#943750
1!
1+
0&
1-
0.
02
03
0/
00
01
04
#945000
0!
0+
1&
#946250
1!
1+
0&
14
#947500
0!
0+
1&
#948750
1!
1+
0&
13
04
#950000
0!
0+
1&
#951250
1!
1+
0&
14
#952500
0!
0+
1&
#953750
1!
1+
0&
12
03
04
#955000
0!
0+
1&
#956250
1!
1+
0&
14
#957500
0!
0+
1&
#958750
1!
1+
0&
13
04
#960000
0!
0+
1&
#961250
1!
1+
0&
14
#962500
0!
0+
1&
#963750
1!
1+
0&
02
03
11
04
#965000
0!
0+
1&
#966250
1!
1+
0&
14
#967500
0!
0+
1&
#968750
1!
1+
0&
13
04
#970000
0!
0+
1&
#971250
1!
1+
0&
14
#972500
0!
0+
1&
#973750
1!
1+
0&
12
03
04
#975000
0!
0+
1&
#976250
1!
1+
0&
14
#977500
0!
0+
1&
#978750
1!
1+
0&
13
04
#980000
0!
0+
1&
#981250
1!
1+
0&
14
#982500
0!
0+
1&
#983750
1!
1+
0&
02
03
10
01
04
#985000
0!
0+
1&
#986250
1!
1+
0&
14
#987500
0!
0+
1&
#988750
1!
1+
0&
13
04
#990000
0!
0+
1&
#991250
1!
1+
0&
14
#992500
0!
0+
1&
#993750
1!
1+
0&
12
03
04
#995000
0!
0+
1&
#996250
1!
1+
0&
14
#997500
0!
0+
1&
#998750
1!
1+
0&
13
04
#1000000
0!
0+
1&
#1001250
1!
1+
0&
14
#1002500
0!
0+
1&
#1003750
1!
1+
0&
02
03
11
04
#1005000
0!
0+
1&
#1006250
1!
1+
0&
14
#1007500
0!
0+
1&
#1008750
1!
1+
0&
13
04
#1010000
0!
0+
1&
#1011250
1!
1+
0&
14
#1012500
0!
0+
1&
#1013750
1!
1+
0&
12
03
04
#1015000
0!
0+
1&
#1016250
1!
1+
0&
14
#1017500
0!
0+
1&
#1018750
1!
1+
0&
13
04
#1020000
0!
0+
1&
#1021250
1!
1+
0&
14
#1022500
0!
0+
1&
#1023750
1!
1+
0&
02
03
1/
00
01
04
#1025000
0!
0+
1&
#1026250
1!
1+
0&
14
#1027500
0!
0+
1&
#1028750
1!
1+
0&
13
04
#1030000
0!
0+
1&
#1031250
1!
1+
0&
14
#1032500
0!
0+
1&
#1033750
1!
1+
0&
12
03
04
#1035000
0!
0+
1&
#1036250
1!
1+
0&
14
#1037500
0!
0+
1&
#1038750
1!
1+
0&
13
04
#1040000
0!
0+
1&
#1041250
1!
1+
0&
14
#1042500
0!
0+
1&
#1043750
1!
1+
0&
02
03
11
04
#1045000
0!
0+
1&
#1046250
1!
1+
0&
14
#1047500
0!
0+
1&
#1048750
1!
1+
0&
13
04
#1050000
0!
0+
1&
#1051250
1!
1+
0&
14
#1052500
0!
0+
1&
#1053750
1!
1+
0&
12
03
04
#1055000
0!
0+
1&
#1056250
1!
1+
0&
14
#1057500
0!
0+
1&
#1058750
1!
1+
0&
13
04
#1060000
0!
0+
1&
#1061250
1!
1+
0&
14
#1062500
0!
0+
1&
#1063750
1!
1+
0&
02
03
10
01
04
#1065000
0!
0+
1&
#1066250
1!
1+
0&
14
#1067500
0!
0+
1&
#1068750
1!
1+
0&
13
04
#1070000
0!
0+
1&
#1071250
1!
1+
0&
14
#1072500
0!
0+
1&
#1073750
1!
1+
0&
12
03
04
#1075000
0!
0+
1&
#1076250
1!
1+
0&
14
#1077500
0!
0+
1&
#1078750
1!
1+
0&
13
04
#1080000
0!
0+
1&
#1081250
1!
1+
0&
14
#1082500
0!
0+
1&
#1083750
1!
1+
0&
02
03
11
04
#1085000
0!
0+
1&
#1086250
1!
1+
0&
14
#1087500
0!
0+
1&
#1088750
1!
1+
0&
13
04
#1090000
0!
0+
1&
#1091250
1!
1+
0&
14
#1092500
0!
0+
1&
#1093750
1!
1+
0&
12
03
04
#1095000
0!
0+
1&
#1096250
1!
1+
0&
14
#1097500
0!
0+
1&
#1098750
1!
1+
0&
13
04
#1100000
0!
0+
1&
#1101250
1!
1+
0&
14
#1102500
0!
0+
1&
#1103750
1!
1+
0&
1.
02
03
0/
00
01
04
#1105000
0!
0+
1&
#1106250
1!
1+
0&
14
#1107500
0!
0+
1&
#1108750
1!
1+
0&
13
04
#1110000
0!
0+
1&
#1111250
1!
1+
0&
14
#1112500
0!
0+
1&
#1113750
1!
1+
0&
12
03
04
#1115000
0!
0+
1&
#1116250
1!
1+
0&
14
#1117500
0!
0+
1&
#1118750
1!
1+
0&
13
04
#1120000
0!
0+
1&
#1121250
1!
1+
0&
14
#1122500
0!
0+
1&
#1123750
1!
1+
0&
02
03
11
04
#1125000
0!
0+
1&
#1126250
1!
1+
0&
14
#1127500
0!
0+
1&
#1128750
1!
1+
0&
13
04
#1130000
0!
0+
1&
#1131250
1!
1+
0&
14
#1132500
0!
0+
1&
#1133750
1!
1+
0&
12
03
04
#1135000
0!
0+
1&
#1136250
1!
1+
0&
14
#1137500
0!
0+
1&
#1138750
1!
1+
0&
13
04
#1140000
0!
0+
1&
#1141250
1!
1+
0&
14
#1142500
0!
0+
1&
#1143750
1!
1+
0&
02
03
10
01
04
#1145000
0!
0+
1&
#1146250
1!
1+
0&
14
#1147500
0!
0+
1&
#1148750
1!
1+
0&
13
04
#1150000
0!
0+
1&
#1151250
1!
1+
0&
14
#1152500
0!
0+
1&
#1153750
1!
1+
0&
12
03
04
#1155000
0!
0+
1&
#1156250
1!
1+
0&
14
#1157500
0!
0+
1&
#1158750
1!
1+
0&
13
04
#1160000
0!
0+
1&
#1161250
1!
1+
0&
14
#1162500
0!
0+
1&
#1163750
1!
1+
0&
02
03
11
04
#1165000
0!
0+
1&
#1166250
1!
1+
0&
14
#1167500
0!
0+
1&
#1168750
1!
1+
0&
13
04
#1170000
0!
0+
1&
#1171250
1!
1+
0&
14
#1172500
0!
0+
1&
#1173750
1!
1+
0&
12
03
04
#1175000
0!
0+
1&
#1176250
1!
1+
0&
14
#1177500
0!
0+
1&
#1178750
1!
1+
0&
13
04
#1180000
0!
0+
1&
#1181250
1!
1+
0&
14
#1182500
0!
0+
1&
