PLD/simulation/qsim/pld_mbed_etudiant.msim.vcd
$comment
	File created using the following command:
		vcd file pld_mbed_etudiant.msim.vcd -direction
$end
$date
	Tue Apr 29 16:34:49 2025
$end
$version
	ModelSim Version 10.1d
$end
$timescale
	1ps
$end
$scope module filtre_hall_vlg_vec_tst $end
$var reg 1 ! H_10khz $end
$var reg 1 " hall_A $end
$var reg 1 # hall_B $end
$var reg 1 $ hall_C $end
$var wire 1 % hall_filtre [2] $end
$var wire 1 & hall_filtre [1] $end
$var wire 1 ' hall_filtre [0] $end
$var wire 1 ( valid_hall $end
$var wire 1 ) sampler $end
$scope module i1 $end
$var wire 1 * gnd $end
$var wire 1 + vcc $end
$var wire 1 , unknown $end
$var wire 1 - H_10khz~dataout $end
$var wire 1 . hall_A~dataout $end
$var wire 1 / hall_B~dataout $end
$var wire 1 0 hall_C~dataout $end
$var wire 1 1 process_0~10_pexpout $end
$var wire 1 2 valid_hall~reg0_dataout $end
$var wire 1 3 N[0]~44_pexpout $end
$var wire 1 4 hall_filtre[0]~reg0_dataout $end
$var wire 1 5 N[1]~40_pexpout $end
$var wire 1 6 hall_filtre[1]~reg0_dataout $end
$var wire 1 7 N[2]~36_pexpout $end
$var wire 1 8 hall_filtre[2]~reg0_dataout $end
$var wire 1 9 N [2] $end
$var wire 1 : N [1] $end
$var wire 1 ; N [0] $end
$var wire 1 < N_3 [2] $end
$var wire 1 = N_3 [1] $end
$var wire 1 > N_3 [0] $end
$var wire 1 ? N_2 [2] $end
$var wire 1 @ N_2 [1] $end
$var wire 1 A N_2 [0] $end
$upscope $end
$upscope $end
$enddefinitions $end
#0
$dumpvars
0!
0"
0#
0$
0'
0&
0%
0(
x)
0*
1+
x,
0-
0.
0/
00
11
02
03
04
05
06
07
08
0;
0:
09
0>
0=
0<
0A
0@
0?
$end
#500000
1!
1-
0)
12
1(
#1000000
0!
0-
1)
#1500000
1!
1-
0)
#2000000
0!
0-
1)
#2500000
1!
1-
0)
#3000000
0!
0-
1)
#3500000
1!
1-
0)
#4000000
0!
0-
1)
#4500000
1!
1-
0)
#5000000
0!
0-
1)
#5500000
1!
1-
0)
#6000000
0!
0-
1)
#6500000
1!
1-
0)
#7000000
0!
0-
1)
#7500000
1!
1-
0)
#8000000
0!
0-
1)
#8500000
1!
1-
0)
#9000000
0!
0-
1)
#9500000
1!
1-
0)
#10000000
0!
0-
1)
#10500000
1!
1-
0)
#11000000
0!
0-
1)
#11500000
1!
1-
0)
#12000000
0!
0-
1)
#12500000
1!
1-
0)
#13000000
0!
0-
1)
#13500000
1!
1-
0)
#14000000
0!
0-
1)
#14500000
1!
1-
0)
#15000000
0!
0-
1)
#15500000
1!
1-
0)
#16000000
0!
0-
1)
#16500000
1!
1-
0)
#17000000
0!
0-
1)
#17500000
1!
1-
0)
#18000000
0!
0-
1)
#18500000
1!
1-
0)
#19000000
0!
0-
1)
#19200000
1"
1.
0)
#19500000
1!
1-
1)
1;
01
#20000000
0!
0-
0)
#20480000
0"
0.
1)
#20500000
1!
1-
0)
02
1A
0;
0(
#21000000
0!
0-
1)
#21500000
1!
1-
0)
1>
0A
#21760000
1"
1.
1)
#22000000
0!
0-
0)
#22500000
1!
1-
1)
0>
1;
#23000000
0!
0-
0)
#23500000
1!
1-
1)
1A
#24000000
0!
0-
0)
#24500000
1!
1-
1)
1>
13
#25000000
0!
0-
0)
#25500000
1!
1-
1)
14
12
03
1'
1(
#26000000
0!
0-
0)
#26500000
1!
1-
1)
#27000000
0!
0-
0)
#27500000
1!
1-
1)
#28000000
0!
0-
0)
#28500000
1!
1-
1)
#29000000
0!
0-
0)
#29500000
1!
1-
1)
#30000000
0!
0-
0)
#30500000
1!
1-
1)
#31000000
0!
0-
0)
#31500000
1!
1-
1)
#32000000
0!
0-
0)
#32500000
1!
1-
1)
#33000000
0!
0-
0)
#33500000
1!
1-
1)
#34000000
0!
0-
0)
#34500000
1!
1-
1)
#35000000
0!
0-
0)
#35500000
1!
1-
1)
#36000000
0!
0-
0)
#36500000
1!
1-
1)
#37000000
0!
0-
0)
#37500000
1!
1-
1)
#38000000
0!
0-
0)
#38500000
1!
1-
1)
#39000000
0!
0-
0)
#39500000
1!
1-
1)
#40000000
1#
0"
0!
1/
0.
0-
0)
#40500000
1!
1-
1)
1:
0;
#40960000
0#
1"
0/
1.
0)
#41000000
0!
0-
1)
#41500000
1!
1-
0)
02
1@
0:
0A
1;
0(
#42000000
0!
0-
1)
#42240000
1#
0"
1/
0.
0)
#42500000
1!
1-
1)
1=
0@
1:
0>
1A
0;
#43000000
0!
0-
0)
#43500000
1!
1-
1)
0=
1@
1>
0A
#44000000
0!
0-
0)
#44500000
1!
1-
1)
1=
0>
15
11
#45000000
0!
0-
0)
#45500000
1!
1-
1)
16
04
12
05
1&
0'
1(
#46000000
0!
0-
0)
#46500000
1!
1-
1)
#47000000
0!
0-
0)
#47500000
1!
1-
1)
#48000000
0!
0-
0)
#48500000
1!
1-
1)
#49000000
0!
0-
0)
#49500000
1!
1-
1)
#50000000
0!
0-
0)
#50500000
1!
1-
1)
#51000000
0!
0-
0)
#51500000
1!
1-
1)
#52000000
0!
0-
0)
#52500000
1!
1-
1)
#53000000
0!
0-
0)
#53500000
1!
1-
1)
#54000000
0!
0-
0)
#54500000
1!
1-
1)
#55000000
0!
0-
0)
#55500000
1!
1-
1)
#56000000
0!
0-
0)
#56500000
1!
1-
1)
#57000000
0!
0-
0)
#57500000
1!
1-
1)
#58000000
0!
0-
0)
#58500000
1!
1-
1)
#59000000
0!
0-
0)
#59500000
1!
1-
1)
#60000000
0!
0-
0)
#60160000
1"
1.
1)
#60500000
1!
1-
0)
1;
01
#61000000
0!
0-
1)
#61440000
0"
0.
0)
#61500000
1!
1-
1)
02
1A
0;
0(
#62000000
0!
0-
0)
#62500000
1!
1-
1)
1>
0A
#62720000
1"
1.
0)
#63000000
0!
0-
1)
#63500000
1!
1-
0)
0>
1;
#64000000
0!
0-
1)
#64500000
1!
1-
0)
1A
#65000000
0!
0-
1)
#65500000
1!
1-
0)
1>
13
#66000000
0!
0-
1)
#66500000
1!
1-
0)
14
12
03
1'
1(
#67000000
0!
0-
1)
#67500000
1!
1-
0)
#68000000
0!
0-
1)
#68500000
1!
1-
0)
#69000000
0!
0-
1)
#69500000
1!
1-
0)
#70000000
0!
0-
1)
#70500000
1!
1-
0)
#71000000
0!
0-
1)
#71500000
1!
1-
0)
#72000000
0!
0-
1)
#72500000
1!
1-
0)
#73000000
0!
0-
1)
#73500000
1!
1-
0)
#74000000
0!
0-
1)
#74500000
1!
1-
0)
#75000000
0!
0-
1)
#75500000
1!
1-
0)
#76000000
0!
0-
1)
#76500000
1!
1-
0)
#77000000
0!
0-
1)
#77500000
1!
1-
0)
#78000000
0!
0-
1)
#78500000
1!
1-
0)
#79000000
0!
0-
1)
#79500000
1!
1-
0)
#80000000
1$
0#
0"
0!
10
0/
0.
0-
1)
#80500000
1!
1-
0)
19
0:
0;
#80640000
0$
1#
1"
00
1/
1.
1)
#81000000
0!
0-
0)
#81500000
1!
1-
1)
02
1?
09
0@
1:
0A
1;
0(
#81920000
1$
0#
0"
10
0/
0.
0)
#82000000
0!
0-
1)
#82500000
1!
1-
0)
1<
0?
19
0=
1@
0:
0>
1A
0;
#83000000
0!
0-
1)
#83500000
1!
1-
0)
0<
1?
1=
0@
1>
0A
#84000000
0!
0-
1)
#84500000
1!
1-
0)
1<
0=
0>
17
11
#85000000
0!
0-
1)
#85500000
1!
1-
0)
18
06
04
12
07
1%
0&
0'
1(
#86000000
0!
0-
1)
#86500000
1!
1-
0)
#87000000
0!
0-
1)
#87500000
1!
1-
0)
#88000000
0!
0-
1)
#88500000
1!
1-
0)
#89000000
0!
0-
1)
#89500000
1!
1-
0)
#90000000
0!
0-
1)
#90500000
1!
1-
0)
#91000000
0!
0-
1)
#91500000
1!
1-
0)
#92000000
0!
0-
1)
#92500000
1!
1-
0)
#93000000
0!
0-
1)
#93500000
1!
1-
0)
#94000000
0!
0-
1)
#94500000
1!
1-
0)
#95000000
0!
0-
1)
#95500000
1!
1-
0)
#96000000
0!
0-
1)
#96500000
1!
1-
0)
#97000000
0!
0-
1)
#97500000
1!
1-
0)
#98000000
0!
0-
1)
#98500000
1!
1-
0)
#99000000
0!
0-
1)
#99500000
1!
1-
0)
